{
  "coming": [
    {
      "id": 577564,
      "img": "http://p0.meituan.net/120.180/movie/5bd4ec1cded88c7cd48f0b58589bd505610552.jpg",
      "wish": 147722,
      "wishst": 0,
      "nm": "神奇动物：格林德沃之罪",
      "comingTitle": "11月16日 周五"
    },
    {
      "id": 1206824,
      "img": "http://p1.meituan.net/120.180/movie/c7453592d38b7aff6a774a52732792cd3778866.jpg",
      "wish": 111421,
      "wishst": 0,
      "nm": "人间·喜剧",
      "comingTitle": "12月7日 周五"
    },
    {
      "id": 249342,
      "img": "http://p1.meituan.net/120.180/movie/b349982a1c2bbf01407696e7d95066cb580557.jpg",
      "wish": 91355,
      "wishst": 0,
      "nm": "海王",
      "comingTitle": "12月7日 周五"
    },
    {
      "id": 344869,
      "img": "http://p1.meituan.net/120.180/movie/9cd36871e75c756f3ad175afa6452cf2177292.jpg",
      "wish": 81713,
      "wishst": 0,
      "nm": "疯狂的外星人",
      "comingTitle": "2019年2月5日 周二"
    },
    {
      "id": 1218091,
      "img": "http://p0.meituan.net/120.180/movie/e5f0a55327d5be1caa9f110abcca23865841112.jpg",
      "wish": 69041,
      "wishst": 0,
      "nm": "飞驰人生",
      "comingTitle": "2019年2月5日 周二"
    },
    {
      "id": 1198213,
      "img": "http://p0.meituan.net/120.180/movie/b43d03c588374cc7bf678e9d4b0cbb20701307.jpg",
      "wish": 58605,
      "wishst": 0,
      "nm": "营救汪星人",
      "comingTitle": "2019年1月11日 周五"
    },
    {
      "id": 342165,
      "img": "http://p1.meituan.net/120.180/movie/2a28be185b0272822808e513fe60749f613877.jpg",
      "wish": 57032,
      "wishst": 0,
      "nm": "武林怪兽",
      "comingTitle": "12月21日 周五"
    },
    {
      "id": 341213,
      "img": "http://p0.meituan.net/120.180/movie/600beaeaa9929649f38181d41f2c8578328129.jpg",
      "wish": 53881,
      "wishst": 0,
      "nm": "无敌破坏王2：大闹互联网",
      "comingTitle": "11月23日 周五"
    },
    {
      "id": 1206836,
      "img": "http://p0.meituan.net/120.180/movie/407c19f8097e0cc5ab27356b47865fed981837.jpg",
      "wish": 41257,
      "wishst": 0,
      "nm": "神探蒲松龄",
      "comingTitle": "2019年2月5日 周二"
    },
    {
      "id": 248906,
      "img": "http://p1.meituan.net/120.180/movie/089376f7781f4b4ab02f3ce3f04d0ef43031593.jpg",
      "wish": 37788,
      "wishst": 0,
      "nm": "流浪地球",
      "comingTitle": "2019年2月5日 周二"
    }
  ],
  "paging": {
    "hasMore": true,
    "limit": 10,
    "offset": 0,
    "total": 205
  }
}
